Estudio de Asistentes al CTBA
…
Veo que en edad tengo valores muy altos (gente de 259 aos!) y muy bajos (0 aos), los saco del analisis, son compras por tarjeta de credito por eso suponemos una cota de mnimo de edad para las transacciones de 15 ao.

subset (ctbaz, ctbaz$edad>100)

## # A tibble: 26 x 13
##    `Fecha de nac.` Mail  Genero Evento Dia                 Lugar
##    <date>          <chr> <chr>  <chr>  <dttm>              <chr>
##  1 1856-09-27      belu~ M      Blum   2018-08-19 20:00:00 CTBA~
##  2 1844-05-26      jo.g~ M      La Te~ 2018-08-02 21:00:00 CTBA~
##  3 1834-08-24      gonz~ M      Petr~ 2018-08-16 21:00:00 CTBA~
##  4 1759-06-12      jona~ H      El hi~ 2018-08-02 20:00:00 CTBA~
##  5 1899-12-31      fybl~ M      Las a~ 2018-04-04 20:30:00 CTBA~
##  6 1868-02-15      emie~ M      Miedo  2018-03-09 21:00:00 CTBA~
##  7 1796-02-16      msol~ M      Blum   2018-07-19 20:30:00 CTBA~
##  8 1818-07-22      luci~ M      Retro~ 2018-04-28 21:00:00 CTBA~
##  9 1885-12-02      ilet~ M      Petr~ 2018-07-26 21:00:00 CTBA~
## 10 1856-09-27      belu~ M      XXII ~ 2018-11-27 21:00:00 CTBA~
## # ... with 16 more rows, and 7 more variables:
## #   direccion_normalizada <chr>, geometry <POINT []>, barrio <chr>,
## #   comuna <chr>, teatro <chr>, fecha <date>, edad <dbl>

subset (ctbaz, ctbaz$edad<15)

## # A tibble: 586 x 13
##    `Fecha de nac.` Mail  Genero Evento Dia                 Lugar
##    <date>          <chr> <chr>  <chr>  <dttm>              <chr>
##  1 2018-01-25      bell~ H      Blum   2018-07-12 20:30:00 CTBA~
##  2 2018-01-03      joac~ H      Cae l~ 2018-11-08 20:30:00 CTBA~
##  3 2018-08-18      mart~ H      Blum   2018-09-09 20:00:00 CTBA~
##  4 2008-05-04      juan~ H      Divin~ 2018-11-23 20:00:00 CTBA~
##  5 2018-06-10      mech~ M      El hi~ 2018-08-12 20:00:00 CTBA~
##  6 2018-04-24      romi~ M      Blum   2018-08-30 20:30:00 CTBA~
##  7 2018-05-22      roxa~ M      Divin~ 2018-09-16 19:00:00 CTBA~
##  8 2018-05-22      roxa~ M      La Te~ 2018-07-18 21:00:00 CTBA~
##  9 2018-01-04      tang~ H      Blum   2018-08-04 20:30:00 CTBA~
## 10 2018-05-08      pial~ M      La Te~ 2018-08-05 21:00:00 CTBA~
## # ... with 576 more rows, and 7 more variables:
## #   direccion_normalizada <chr>, geometry <POINT []>, barrio <chr>,
## #   comuna <chr>, teatro <chr>, fecha <date>, edad <dbl>
…
Asistencia de usuarios recurrentes

Otro dato que puede ser interesante de generar es el de cantidad de veces que fue cada usuario al teatro (esto es un estimativo, porque se computa quin realiz al transaccin, por lo que una persona pudo haber ido ms veces al teatro)

ctbau <- ctbaz %>%
  group_by(Mail) %>%
  summarise (qus= n())

ctbau

## # A tibble: 16,711 x 2
##    Mail                           qus
##    <chr>                        <int>
##  1 100leguas@gmail.com              1
##  2 10pmrock@gmail.com               1
##  3 1948jaime08@gmail.com            1
##  4 1986nando@gmail.com              1
##  5 1camilamenendez@hotmail.com      1
##  6 1fitomendonca@gmail.com          1
##  7 1juanschnitman@gmail.com         3
##  8 1lucianapiantanida@gmail.com     1
##  9 1meugeniafontana@gmail.com       2
## 10 1serveraandrea@gmail.com         2
## # ... with 16,701 more rows
…
