Proyecto Final Ciencia de Datos y Políticas Públicas
…
Sin embargo, este ranking no permite observar facilmente cuales son los arboles que MAS rompen las veredas con sus raices. Que una especie genere mayor cantidad de reclamos no tiene que ver solamente con sus caracteristicas, sino tambien con el tamaño de su poblacion en la ciudad. Por eso es necesario poner en perspectiva el “ranking” de especies que generan reclamos: Podriamos plantear la hipotesis de que: -Especie de arbol que mayor cantidad de roturas generan en las veredas de la ciudad son las que mayor porcentaje de SU propia poblacion genero reclamos en la ciudad. Entonces, buscamos las especies en las que es mayor el porcentaje de individuos que generan reclamos

Especie_Comparacion <- Reclamos_arb_cant_nombre %>% 
  mutate(Diferencia = porcentaje_de_reclamos-porcentaje_especie) %>% 
  mutate(Porcentaje_Que_Rompe = (n.x*100)/n.y)

Tomando especies significativas (Mas de 500 arboles implantados en la Ciudad), podemos realizar un nuevo ranking. Este recorte de “especies significativas” es totalmente arbitrario pero permite dejar de lado poblaciones minimas de algunas especies en la CABA.

Especie_Comparacion_Signif <- Especie_Comparacion %>% 
  mutate(n.y = as.numeric(n.y)) %>% 
  filter(n.y > 499 & NOMBRE_COM!="No Determinado") %>% 
  arrange(desc(Porcentaje_Que_Rompe))
Especie_Comparacion_Signif

## # A tibble: 45 x 7
## # Groups:   NOMBRE_COM [45]
##    NOMBRE_COM   n.x porcentaje_de_r~   n.y porcentaje_espe~ Diferencia
##    <chr>      <int>            <dbl> <dbl>            <dbl>      <dbl>
##  1 Plátano     1691           15.0   34786            9.33     5.65   
##  2 Tilo         796            7.05  17477            4.69     2.36   
##  3 Fresno (F~   419            3.71  10537            2.83     0.884  
##  4 Liquidamb~   158            1.40   4221            1.13     0.267  
##  5 Paraíso      911            8.07  24558            6.59     1.48   
##  6 Palo borr~    62            0.549  1750            0.470    0.0797 
##  7 Sauce llo~    33            0.292   960            0.258    0.0347 
##  8 Árbol del~    43            0.381  1411            0.379    0.00231
##  9 Álamo car~    58            0.514  1921            0.515   -0.00165
## 10 Morera bl~    20            0.177   667            0.179   -0.00180
## # ... with 35 more rows, and 1 more variable: Porcentaje_Que_Rompe <dbl>
…
